source/dump.vcd
$date
	Wed Jan 22 20:31:10 2025
$end
$version
	Icarus Verilog
$end
$timescale
	1s
$end
$scope module pipeline_top_tb $end
$var wire 32 ! Result [31:0] $end
$var reg 1 " clk $end
$var reg 1 # rst $end
$scope module dut $end
$var wire 1 " clk $end
$var wire 1 # rst $end
$var wire 32 $ WriteDataM [31:0] $end
$var wire 32 % ResultW [31:0] $end
$var wire 2 & ResultSrcW [1:0] $end
$var wire 2 ' ResultSrcM [1:0] $end
$var wire 2 ( ResultSrcE [1:0] $end
$var wire 32 ) Result [31:0] $end
$var wire 1 * RegWriteW $end
$var wire 1 + RegWriteM $end
$var wire 1 , RegWriteE $end
$var wire 32 - ReadDataW [31:0] $end
$var wire 5 . RS2_E_H [4:0] $end
$var wire 5 / RS2_E [4:0] $end
$var wire 5 0 RS1_E_H [4:0] $end
$var wire 5 1 RS1_E [4:0] $end
$var wire 5 2 RD_W [4:0] $end
$var wire 5 3 RD_M [4:0] $end
$var wire 5 4 RD_E [4:0] $end
$var wire 32 5 RD2_E [31:0] $end
$var wire 32 6 RD1_E [31:0] $end
$var wire 32 7 PCTargetE [31:0] $end
$var wire 1 8 PCSrcE $end
$var wire 32 9 PCPlus4W [31:0] $end
$var wire 32 : PCPlus4M [31:0] $end
$var wire 32 ; PCPlus4E [31:0] $end
$var wire 32 < PCPlus4D [31:0] $end
$var wire 32 = PCE [31:0] $end
$var wire 32 > PCD [31:0] $end
$var wire 1 ? MemWriteM $end
$var wire 1 @ MemWriteE $end
$var wire 1 A JumpE $end
$var wire 32 B InstrD [31:0] $end
$var wire 32 C Imm_Ext_E [31:0] $end
$var wire 2 D ForwardBE [1:0] $end
$var wire 2 E ForwardAE [1:0] $end
$var wire 1 F BranchE $end
$var wire 1 G ALUSrcE $end
$var wire 32 H ALUResultW [31:0] $end
$var wire 32 I ALUResultM [31:0] $end
$var wire 3 J ALUControlE [2:0] $end
$scope module decode $end
$var wire 3 K ALUControlE [2:0] $end
$var wire 1 G ALUSrcE $end
$var wire 1 F BranchE $end
$var wire 32 L Imm_Ext_E [31:0] $end
$var wire 1 A JumpE $end
$var wire 1 @ MemWriteE $end
$var wire 32 M PCE [31:0] $end
$var wire 32 N PCPlus4E [31:0] $end
$var wire 32 O RD1_E [31:0] $end
$var wire 32 P RD2_E [31:0] $end
$var wire 5 Q RD_E [4:0] $end
$var wire 5 R RS1_E [4:0] $end
$var wire 5 S RS2_E [4:0] $end
$var wire 1 , RegWriteE $end
$var wire 2 T ResultSrcE [1:0] $end
$var wire 1 " clk $end
$var wire 1 # rst $end
$var wire 32 U readData2_D [31:0] $end
$var wire 32 V readData1_D [31:0] $end
$var wire 32 W ResultW [31:0] $end
$var wire 2 X ResultSrcD [1:0] $end
$var wire 1 * RegWriteW $end
$var wire 1 Y RegWriteD $end
$var wire 5 Z RDW [4:0] $end
$var wire 32 [ PCPlus4D [31:0] $end
$var wire 32 \ PCD [31:0] $end
$var wire 1 ] MemWriteD $end
$var wire 1 ^ JumpD $end
$var wire 32 _ InstrD [31:0] $end
$var wire 32 ` Imm_Ext_D [31:0] $end
$var wire 2 a ImmSrcD [1:0] $end
$var wire 1 b BranchD $end
$var wire 1 c ALUSrcD $end
$var wire 3 d ALUControlD [2:0] $end
$var reg 3 e ALUControlD_R [2:0] $end
$var reg 1 G ALUSrcD_R $end
$var reg 1 f BranchD_R $end
$var reg 32 g Imm_Ext_D_R [31:0] $end
$var reg 1 h JumpD_R $end
$var reg 1 i MemWriteD_R $end
$var reg 32 j PCD_R [31:0] $end
$var reg 32 k PCPlus4D_R [31:0] $end
$var reg 32 l RD1_D_R [31:0] $end
$var reg 32 m RD2_D_R [31:0] $end
$var reg 5 n RD_D_R [4:0] $end
$var reg 5 o RS1_D_R [4:0] $end
$var reg 5 p RS2_D_R [4:0] $end
$var reg 1 q RegWriteD_R $end
$var reg 2 r ResultSrcD_R [1:0] $end
$scope module control_unit $end
$var wire 3 s funct3 [2:0] $end
$var wire 7 t funct7 [6:0] $end
$var wire 7 u opcode [6:0] $end
$var wire 2 v ResultSrc [1:0] $end
$var wire 1 Y RegWrite $end
$var wire 1 ] MemWrite $end
$var wire 1 ^ Jump $end
$var wire 2 w ImmSrc [1:0] $end
$var wire 1 b Branch $end
$var wire 1 c ALUSrc $end
$var wire 2 x ALUOp [1:0] $end
$var wire 3 y ALUControl [2:0] $end
$scope module alu_decoder $end
$var wire 3 z funct3 [2:0] $end
$var wire 7 { funct7 [6:0] $end
$var wire 7 | opcode [6:0] $end
$var wire 2 } concatenation [1:0] $end
$var wire 2 ~ ALUOp [1:0] $end
$var wire 3 !" ALUControl [2:0] $end
$upscope $end
$scope module main_decoder $end
$var wire 7 "" opcode [6:0] $end
$var wire 2 #" ResultSrc [1:0] $end
$var wire 1 Y RegWrite $end
$var wire 1 ] MemWrite $end
$var wire 1 ^ Jump $end
$var wire 2 $" ImmSrc [1:0] $end
$var wire 1 b Branch $end
$var wire 1 c ALUSrc $end
$var wire 2 %" ALUOp [1:0] $end
$upscope $end
$upscope $end
$scope module registerFile $end
$var wire 1 " clk $end
$var wire 5 &" rs1 [4:0] $end
$var wire 5 '" rs2 [4:0] $end
$var wire 1 # rst $end
$var wire 1 * writeEnable $end
$var wire 32 (" writeData [31:0] $end
$var wire 32 )" readData2 [31:0] $end
$var wire 32 *" readData1 [31:0] $end
$var wire 5 +" rd [4:0] $end
$var integer 32 ," i [31:0] $end
$upscope $end
$scope module sign_extend $end
$var wire 2 -" ImmSrc [1:0] $end
$var wire 32 ." In [31:0] $end
$var wire 32 /" Imm_Ext [31:0] $end
$upscope $end
$upscope $end
$scope module execute $end
$var wire 3 0" ALUControlE [2:0] $end
$var wire 32 1" ALUResultM [31:0] $end
$var wire 32 2" ALUResultM_E [31:0] $end
$var wire 1 G ALUSrcE $end
$var wire 1 F BranchE $end
$var wire 32 3" Imm_Ext_E [31:0] $end
$var wire 1 A JumpE $end
$var wire 1 @ MemWriteE $end
$var wire 1 ? MemWriteM $end
$var wire 32 4" PCE [31:0] $end
$var wire 32 5" PCPlus4E [31:0] $end
$var wire 32 6" PCPlus4M [31:0] $end
$var wire 32 7" RD1_E [31:0] $end
$var wire 32 8" RD2_E [31:0] $end
$var wire 5 9" RD_E [4:0] $end
$var wire 5 :" RD_M [4:0] $end
$var wire 5 ;" RS1_E [4:0] $end
$var wire 5 <" RS1_E_H [4:0] $end
$var wire 5 =" RS2_E [4:0] $end
$var wire 5 >" RS2_E_H [4:0] $end
$var wire 1 , RegWriteE $end
$var wire 1 + RegWriteM $end
$var wire 2 ?" ResultSrcE [1:0] $end
$var wire 2 @" ResultSrcM [1:0] $end
$var wire 32 A" WriteDataE [31:0] $end
$var wire 32 B" WriteDataM [31:0] $end
$var wire 1 " clk $end
$var wire 1 # rst $end
$var wire 1 C" ZeroE $end
$var wire 32 D" SrcBE_M [31:0] $end
$var wire 32 E" SrcBE [31:0] $end
$var wire 32 F" SrcAE [31:0] $end
$var wire 32 G" ResultW [31:0] $end
$var wire 32 H" ResultE [31:0] $end
$var wire 32 I" PCTargetE [31:0] $end
$var wire 1 8 PCSrcE $end
$var wire 2 J" ForwardBE [1:0] $end
$var wire 2 K" ForwardAE [1:0] $end
$var reg 32 L" ALUResultE_R [31:0] $end
$var reg 1 M" MemWriteE_R $end
$var reg 32 N" PCPlus4E_R [31:0] $end
$var reg 1 8 PCSrcE_R $end
$var reg 5 O" RD_E_R [4:0] $end
$var reg 1 + RegWriteE_R $end
$var reg 2 P" ResultSrcE_R [1:0] $end
$var reg 32 Q" WriteDataE_R [31:0] $end
$scope module SrcAEMux $end
$var wire 32 R" a [31:0] $end
$var wire 32 S" c [31:0] $end
$var wire 2 T" s [1:0] $end
$var wire 32 U" d [31:0] $end
$var wire 32 V" b [31:0] $end
$upscope $end
$scope module SrcBEMux $end
$var wire 32 W" a [31:0] $end
$var wire 32 X" c [31:0] $end
$var wire 2 Y" s [1:0] $end
$var wire 32 Z" d [31:0] $end
$var wire 32 [" b [31:0] $end
$upscope $end
$scope module alu $end
$var wire 32 \" A [31:0] $end
$var wire 3 ]" ALUControl [2:0] $end
$var wire 1 ^" carry $end
$var wire 1 _" overflow $end
$var wire 32 `" result [31:0] $end
$var wire 1 C" zero $end
$var wire 32 a" sum [31:0] $end
$var wire 32 b" slt [31:0] $end
$var wire 1 c" negative $end
$var wire 32 d" mux_2 [31:0] $end
$var wire 32 e" mux_1 [31:0] $end
$var wire 1 f" cout $end
$var wire 32 g" B [31:0] $end
$upscope $end
$scope module alu_mux $end
$var wire 32 h" a [31:0] $end
$var wire 32 i" b [31:0] $end
$var wire 1 G s $end
$var wire 32 j" c [31:0] $end
$upscope $end
$scope module pc_adder $end
$var wire 32 k" a [31:0] $end
$var wire 32 l" b [31:0] $end
$var wire 32 m" c [31:0] $end
$upscope $end
$upscope $end
$scope module fetch $end
$var wire 1 8 PCSrcE $end
$var wire 32 n" PCTargetE [31:0] $end
$var wire 1 " clk $end
$var wire 1 # rst $end
$var wire 32 o" PC_F [31:0] $end
$var wire 32 p" PCPlus4F [31:0] $end
$var wire 32 q" PCPlus4D [31:0] $end
$var wire 32 r" PCF [31:0] $end
$var wire 32 s" PCD [31:0] $end
$var wire 32 t" InstrF [31:0] $end
$var wire 32 u" InstrD [31:0] $end
$var reg 32 v" InstrF_reg [31:0] $end
$var reg 32 w" PCF_reg [31:0] $end
$var reg 32 x" PCPlus4F_reg [31:0] $end
$scope module Instruction_Memory $end
$var wire 1 # rst $end
$var wire 32 y" RD [31:0] $end
$var wire 32 z" A [31:0] $end
$upscope $end
$scope module PC $end
$var wire 1 " clk $end
$var wire 1 # rst $end
$var wire 32 {" PC_next [31:0] $end
$var reg 32 |" PC [31:0] $end
$upscope $end
$scope module PC_Adder $end
$var wire 32 }" a [31:0] $end
$var wire 32 ~" b [31:0] $end
$var wire 32 !# c [31:0] $end
$upscope $end
$scope module PC_Mux $end
$var wire 32 "# a [31:0] $end
$var wire 32 ## b [31:0] $end
$var wire 1 8 s $end
$var wire 32 $# c [31:0] $end
$upscope $end
$upscope $end
$scope module hazard $end
$var wire 5 %# RD_M [4:0] $end
$var wire 5 &# RS1_E [4:0] $end
$var wire 5 '# RS2_E [4:0] $end
$var wire 1 + RegWriteM $end
$var wire 1 # rst $end
$var wire 1 * RegWriteW $end
$var wire 5 (# RD_W [4:0] $end
$var wire 2 )# ForwardBE [1:0] $end
$var wire 2 *# ForwardAE [1:0] $end
$upscope $end
$scope module memory $end
$var wire 32 +# ALUResultM [31:0] $end
$var wire 32 ,# ALUResultW [31:0] $end
$var wire 1 ? MemWriteM $end
$var wire 32 -# PCPlus4M [31:0] $end
$var wire 32 .# PCPlus4W [31:0] $end
$var wire 5 /# RD_M [4:0] $end
$var wire 5 0# RD_W [4:0] $end
$var wire 32 1# ReadDataW [31:0] $end
$var wire 1 + RegWriteM $end
$var wire 1 * RegWriteW $end
$var wire 2 2# ResultSrcM [1:0] $end
$var wire 2 3# ResultSrcW [1:0] $end
$var wire 32 4# WriteDataM [31:0] $end
$var wire 1 " clk $end
$var wire 1 # rst $end
$var wire 32 5# ReadDataM_W [31:0] $end
$var reg 32 6# ALUResultM_R [31:0] $end
$var reg 32 7# PCPlus4M_R [31:0] $end
$var reg 5 8# RD_M_R [4:0] $end
$var reg 32 9# ReadDataM_R [31:0] $end
$var reg 1 * RegWriteM_R $end
$var reg 2 :# ResultSrcM_R [1:0] $end
$scope module data_memory $end
$var wire 32 ;# A [31:0] $end
$var wire 1 " clk $end
$var wire 1 # rst $end
$var wire 32 <# writeData [31:0] $end
$var wire 1 ? writeEnable $end
$var wire 32 =# RD [31:0] $end
$var integer 32 ># i [31:0] $end
$upscope $end
$upscope $end
$scope module writeback $end
$var wire 32 ?# ALUResultW [31:0] $end
$var wire 32 @# PCPlus4W [31:0] $end
$var wire 5 A# RD_W [4:0] $end
$var wire 32 B# ReadDataW [31:0] $end
$var wire 1 * RegWriteW $end
$var wire 2 C# ResultSrcW [1:0] $end
$var wire 32 D# ResultW [31:0] $end
$var wire 1 " clk $end
$var wire 1 # rst $end
$var wire 32 E# ResultW_X [31:0] $end
$scope module mux_3_by_1 $end
$var wire 32 F# a [31:0] $end
$var wire 32 G# b [31:0] $end
$var wire 32 H# c [31:0] $end
$var wire 2 I# s [1:0] $end
$var wire 32 J# d [31:0] $end
$upscope $end
$upscope $end
$upscope $end
$upscope $end
$enddefinitions $end
#0
$dumpvars
b0 J#
b0 I#
b0 H#
b0 G#
b0 F#
b0 E#
b0 D#
b0 C#
b0 B#
b0 A#
b0 @#
b0 ?#
b1111111111 >#
b0 =#
b0 <#
b0 ;#
b0 :#
b0 9#
b0 8#
b0 7#
b0 6#
b0 5#
b0 4#
b0 3#
b0 2#
b0 1#
b0 0#
b0 /#
b0 .#
b0 -#
b0 ,#
b0 +#
b0 *#
b0 )#
b0 (#
b0 '#
b0 &#
b0 %#
b100 $#
b0 ##
b100 "#
b100 !#
b100 ~"
b0 }"
b0 |"
b100 {"
b0 z"
b0 y"
b0 x"
b0 w"
b0 v"
b0 u"
b0 t"
b0 s"
b0 r"
b0 q"
b100 p"
b100 o"
b0 n"
b0 m"
b0 l"
b0 k"
b0 j"
b0 i"
b0 h"
b0 g"
0f"
b0 e"
b0 d"
0c"
b0 b"
b0 a"
b0 `"
0_"
0^"
b0 ]"
b0 \"
b0 ["
b0 Z"
b0 Y"
b0 X"
b0 W"
b0 V"
b0 U"
b0 T"
b0 S"
b0 R"
b0 Q"
b0 P"
b0 O"
b0 N"
0M"
b0 L"
b0 K"
b0 J"
b0 I"
b0 H"
b0 G"
b0 F"
b0 E"
b0 D"
1C"
b0 B"
b0 A"
b0 @"
b0 ?"
b0 >"
b0 ="
b0 <"
b0 ;"
b0 :"
b0 9"
b0 8"
b0 7"
b0 6"
b0 5"
b0 4"
b0 3"
b0 2"
b0 1"
b0 0"
b0 /"
b0 ."
b0 -"
b11111 ,"
b0 +"
b0 *"
b0 )"
b0 ("
b0 '"
b0 &"
b0 %"
b0 $"
b0 #"
b0 ""
b0 !"
b0 ~
b0 }
b0 |
b0 {
b0 z
b0 y
b0 x
b0 w
b0 v
b0 u
b0 t
b0 s
b0 r
0q
b0 p
b0 o
b0 n
b0 m
b0 l
b0 k
b0 j
0i
0h
b0 g
0f
b0 e
b0 d
0c
0b
b0 a
b0 `
b0 _
0^
0]
b0 \
b0 [
b0 Z
0Y
b0 X
b0 W
b0 V
b0 U
b0 T
b0 S
b0 R
b0 Q
b0 P
b0 O
b0 N
b0 M
b0 L
b0 K
b0 J
b0 I
b0 H
0G
0F
b0 E
b0 D
b0 C
b0 B
0A
0@
0?
b0 >
b0 =
b0 <
b0 ;
b0 :
b0 9
08
b0 7
b0 6
b0 5
b0 4
b0 3
b0 2
b0 1
b0 0
b0 /
b0 .
b0 -
0,
0+
0*
b0 )
b0 (
b0 '
b0 &
b0 %
b0 $
0#
1"
b0 !
$end
#50
0"
#100
1"
#150
0"
#200
b10100000000001010010011 t"
b10100000000001010010011 y"
1#
1"
#250
0"
#300
1Y
1c
b101 `
b101 /"
b1100000000001100010011 t"
b1100000000001100010011 y"
b101 '"
b10011 u
b10011 |
b10011 ""
b1000 o"
b1000 {"
b1000 $#
b100 <
b100 [
b100 q"
b10100000000001010010011 B
b10100000000001010010011 _
b10100000000001010010011 ."
b10100000000001010010011 u"
b1000 p"
b1000 !#
b1000 "#
b100 r"
b100 z"
b100 |"
b100 }"
b100 x"
b10100000000001010010011 v"
1"
#350
0"
#400
0C"
b101 H"
b101 `"
b101 d"
b101 a"
b101 e"
b11 `
b11 /"
b11000101000001110110011 t"
b11000101000001110110011 y"
b101 E"
b101 g"
b101 j"
b11 '"
b1100 o"
b1100 {"
b1100 $#
b1000 <
b1000 [
b1000 q"
b100 >
b100 \
b100 s"
b1100000000001100010011 B
b1100000000001100010011 _
b1100000000001100010011 ."
b1100000000001100010011 u"
b1100 p"
b1100 !#
b1100 "#
b1000 r"
b1000 z"
b1000 |"
b1000 }"
b101 .
b101 >"
b101 '#
b101 /
b101 S
b101 p
b101 ="
b100 ;
b100 N
b100 5"
b100 k
b101 4
b101 Q
b101 9"
b101 n
b101 7
b101 I"
b101 m"
b101 n"
b101 ##
b101 C
b101 L
b101 g
b101 3"
b101 i"
b101 l"
1G
1,
1q
b1000 x"
b100 w"
b1100000000001100010011 v"
1"
#450
0"
#500
1Y
0c
b10 x
b10 ~
b10 %"
b11 H"
b11 `"
b11 d"
b110 `
b110 /"
b10 }
b11 a"
b10010000000011 t"
b10010000000011 y"
b110 '"
b101 &"
b110011 u
b110011 |
b110011 ""
b11 e"
b10000 o"
b10000 {"
b10000 $#
b1100 <
b1100 [
b1100 q"
b1000 >
b1000 \
b1000 s"
b11000101000001110110011 B
b11000101000001110110011 _
b11000101000001110110011 ."
b11000101000001110110011 u"
b11 E"
b11 g"
b11 j"
b10000 p"
b10000 !#
b10000 "#
b1100 r"
b1100 z"
b1100 |"
b1100 }"
b1100 x"
b1000 w"
b11000101000001110110011 v"
b11 .
b11 >"
b11 '#
b11 /
b11 S
b11 p
b11 ="
b1000 ;
b1000 N
b1000 5"
b1000 k
b100 =
b100 M
b100 j
b100 4"
b100 k"
b110 4
b110 Q
b110 9"
b110 n
b111 7
b111 I"
b111 m"
b111 n"
b111 ##
b11 C
b11 L
b11 g
b11 3"
b11 i"
b11 l"
b101 3
b101 :"
b101 O"
b101 %#
b101 /#
b100 :
b100 6"
b100 -#
b100 N"
1+
b101 I
b101 1"
b101 2"
b101 L"
b101 S"
b101 X"
b101 +#
b101 ;#
1"
#550
0"
#600
b101 F"
b101 U"
b101 \"
b11 D"
b11 Z"
b11 h"
1c
b1 E
b1 K"
b1 T"
b1 *#
0C"
b1000 H"
b1000 `"
b1000 d"
b0 x
b0 ~
b0 %"
b10 D
b10 J"
b10 Y"
b10 )#
b1000 a"
b0 `
b0 /"
b0 }
b1 X
b1 v
b1 #"
b100000000010010010011 t"
b100000000010010010011 y"
b101 !
b101 )
b11 e"
b0 '"
b0 &"
b10 s
b10 z
b11 u
b11 |
b11 ""
b10100 o"
b10100 {"
b10100 $#
b101 %
b101 W
b101 ("
b101 G"
b101 V"
b101 ["
b101 D#
b101 E#
b101 J#
b11 E"
b11 g"
b11 j"
b10000 <
b10000 [
b10000 q"
b1100 >
b1100 \
b1100 s"
b10010000000011 B
b10010000000011 _
b10010000000011 ."
b10010000000011 u"
b10100 p"
b10100 !#
b10100 "#
b10000 r"
b10000 z"
b10000 |"
b10000 }"
b101 2
b101 Z
b101 +"
b101 (#
b101 0#
b101 8#
b101 A#
b100 9
b100 .#
b100 7#
b100 @#
b100 H#
b101 H
b101 ,#
b101 6#
b101 ?#
b101 F#
1*
b110 3
b110 :"
b110 O"
b110 %#
b110 /#
b1000 :
b1000 6"
b1000 -#
b1000 N"
b11 I
b11 1"
b11 2"
b11 L"
b11 S"
b11 X"
b11 +#
b11 ;#
b110 .
b110 >"
b110 '#
b110 /
b110 S
b110 p
b110 ="
b101 0
b101 <"
b101 &#
b101 1
b101 R
b101 o
b101 ;"
b1100 ;
b1100 N
b1100 5"
b1100 k
b1000 =
b1000 M
b1000 j
b1000 4"
b1000 k"
b111 4
b111 Q
b111 9"
b111 n
b1110 7
b1110 I"
b1110 m"
b1110 n"
b1110 ##
b110 C
b110 L
b110 g
b110 3"
b110 i"
b110 l"
0G
b10000 x"
b1100 w"
b10010000000011 v"
1"
#650
0"
#700
1C"
b0 H"
b0 `"
b0 d"
b0 E
b0 K"
b0 T"
b0 *#
b0 a"
b1 `
b1 /"
b0 X
b0 v
b0 #"
b0 e"
b0 D
b0 J"
b0 Y"
b0 )#
b0 D"
b0 Z"
b0 h"
b0 F"
b0 U"
b0 \"
b100101000000010100110011 t"
b100101000000010100110011 y"
b1 '"
b0 s
b0 z
b10011 u
b10011 |
b10011 ""
b0 E"
b0 g"
b0 j"
b11 !
b11 )
b11000 o"
b11000 {"
b11000 $#
b10100 <
b10100 [
b10100 q"
b10000 >
b10000 \
b10000 s"
b100000000010010010011 B
b100000000010010010011 _
b100000000010010010011 ."
b100000000010010010011 u"
b11 %
b11 W
b11 ("
b11 G"
b11 V"
b11 ["
b11 D#
b11 E#
b11 J#
b11000 p"
b11000 !#
b11000 "#
b10100 r"
b10100 z"
b10100 |"
b10100 }"
b10100 x"
b10000 w"
b100000000010010010011 v"
b0 .
b0 >"
b0 '#
b0 /
b0 S
b0 p
b0 ="
b0 0
b0 <"
b0 &#
b0 1
b0 R
b0 o
b0 ;"
b10000 ;
b10000 N
b10000 5"
b10000 k
b1100 =
b1100 M
b1100 j
b1100 4"
b1100 k"
b1000 4
b1000 Q
b1000 9"
b1000 n
b1100 7
b1100 I"
b1100 m"
b1100 n"
b1100 ##
b0 C
b0 L
b0 g
b0 3"
b0 i"
b0 l"
b1 (
b1 T
b1 ?"
b1 r
1G
b111 3
b111 :"
b111 O"
b111 %#
b111 /#
b1100 :
b1100 6"
b1100 -#
b1100 N"
b11 $
b11 B"
b11 4#
b11 <#
b11 A"
b11 Q"
b1000 I
b1000 1"
b1000 2"
b1000 L"
b1000 S"
b1000 X"
b1000 +#
b1000 ;#
b110 2
b110 Z
b110 +"
b110 (#
b110 0#
b110 8#
b110 A#
b1000 9
b1000 .#
b1000 7#
b1000 @#
b1000 H#
b11 H
b11 ,#
b11 6#
b11 ?#
b11 F#
1"
#750
0"
#800
0C"
b1 H"
b1 `"
b1 d"
1Y
0c
b10 x
b10 ~
b10 %"
b1 a"
b1001 `
b1001 /"
b10 }
bx t"
bx y"
b1000 !
b1000 )
b1 e"
b1001 '"
b1000 &"
b110011 u
b110011 |
b110011 ""
b11100 o"
b11100 {"
b11100 $#
b1000 %
b1000 W
b1000 ("
b1000 G"
b1000 V"
b1000 ["
b1000 D#
b1000 E#
b1000 J#
b1 E"
b1 g"
b1 j"
b11000 <
b11000 [
b11000 q"
b10100 >
b10100 \
b10100 s"
b100101000000010100110011 B
b100101000000010100110011 _
b100101000000010100110011 ."
b100101000000010100110011 u"
b11100 p"
b11100 !#
b11100 "#
b11000 r"
b11000 z"
b11000 |"
b11000 }"
b111 2
b111 Z
b111 +"
b111 (#
b111 0#
b111 8#
b111 A#
b1100 9
b1100 .#
b1100 7#
b1100 @#
b1100 H#
b1000 H
b1000 ,#
b1000 6#
b1000 ?#
b1000 F#
b1000 3
b1000 :"
b1000 O"
b1000 %#
b1000 /#
b10000 :
b10000 6"
b10000 -#
b10000 N"
b1 '
b1 @"
b1 2#
b1 P"
b0 $
b0 B"
b0 4#
b0 <#
b0 A"
b0 Q"
b0 I
b0 1"
b0 2"
b0 L"
b0 S"
b0 X"
b0 +#
b0 ;#
b1 .
b1 >"
b1 '#
b1 /
b1 S
b1 p
b1 ="
b10100 ;
b10100 N
b10100 5"
b10100 k
b10000 =
b10000 M
b10000 j
b10000 4"
b10000 k"
b1001 4
b1001 Q
b1001 9"
b1001 n
b10001 7
b10001 I"
b10001 m"
b10001 n"
b10001 ##
b1 C
b1 L
b1 g
b1 3"
b1 i"
b1 l"
b0 (
b0 T
b0 ?"
b0 r
b11000 x"
b10100 w"
b100101000000010100110011 v"
1"
#850
0"
#900
xY
bx d
bx y
bx !"
b1 D"
b1 Z"
b1 h"
0C"
xc
x^
bx x
bx ~
bx %"
b1 E
b1 K"
b1 T"
b1 *#
b1 H"
b1 `"
b1 d"
bx `
bx /"
bx U
bx )"
bx V
bx *"
bx }
x]
xb
bx a
bx w
bx $"
bx -"
bx X
bx v
bx #"
b10 D
b10 J"
b10 Y"
b10 )#
b1 a"
bx '"
bx &"
bx s
bx z
bx t
bx {
bx u
bx |
bx ""
b1 e"
b0 !
b0 )
b100000 o"
b100000 {"
b100000 $#
b11100 <
b11100 [
b11100 q"
b11000 >
b11000 \
b11000 s"
bx B
bx _
bx ."
bx u"
b1 E"
b1 g"
b1 j"
b0 %
b0 W
b0 ("
b0 G"
b0 V"
b0 ["
b0 D#
b0 E#
b0 J#
b100000 p"
b100000 !#
b100000 "#
b11100 r"
b11100 z"
b11100 |"
b11100 }"
b11100 x"
b11000 w"
bx v"
b1001 .
b1001 >"
b1001 '#
b1001 /
b1001 S
b1001 p
b1001 ="
b1000 0
b1000 <"
b1000 &#
b1000 1
b1000 R
b1000 o
b1000 ;"
b11000 ;
b11000 N
b11000 5"
b11000 k
b10100 =
b10100 M
b10100 j
b10100 4"
b10100 k"
b1010 4
b1010 Q
b1010 9"
b1010 n
b11101 7
b11101 I"
b11101 m"
b11101 n"
b11101 ##
b1001 C
b1001 L
b1001 g
b1001 3"
b1001 i"
b1001 l"
0G
b1001 3
b1001 :"
b1001 O"
b1001 %#
b1001 /#
b10100 :
b10100 6"
b10100 -#
b10100 N"
b0 '
b0 @"
b0 2#
b0 P"
b1 I
b1 1"
b1 2"
b1 L"
b1 S"
b1 X"
b1 +#
b1 ;#
b1000 2
b1000 Z
b1000 +"
b1000 (#
b1000 0#
b1000 8#
b1000 A#
b10000 9
b10000 .#
b10000 7#
b10000 @#
b10000 H#
b0 H
b0 ,#
b0 6#
b0 ?#
b0 F#
b1 &
b1 3#
b1 :#
b1 C#
b1 I#
1"
#950
0"
#1000
x_"
bx D"
bx Z"
bx h"
xc"
bx F"
bx U"
bx \"
bx D
bx J"
bx Y"
bx )#
bx E
bx K"
bx T"
bx *#
b0x b"
x^"
bx e"
b1 !
b1 )
bx a"
xf"
xC"
bx E"
bx g"
bx j"
b100100 o"
b100100 {"
b100100 $#
b1 %
b1 W
b1 ("
b1 G"
b1 V"
b1 ["
b1 D#
b1 E#
b1 J#
bx H"
bx `"
bx d"
b100000 <
b100000 [
b100000 q"
b11100 >
b11100 \
b11100 s"
b100100 p"
b100100 !#
b100100 "#
b100000 r"
b100000 z"
b100000 |"
b100000 }"
b1001 2
b1001 Z
b1001 +"
b1001 (#
b1001 0#
b1001 8#
b1001 A#
b10100 9
b10100 .#
b10100 7#
b10100 @#
b10100 H#
b1 H
b1 ,#
b1 6#
b1 ?#
b1 F#
b0 &
b0 3#
b0 :#
b0 C#
b0 I#
b1010 3
b1010 :"
b1010 O"
b1010 %#
b1010 /#
b11000 :
b11000 6"
b11000 -#
b11000 N"
b1 $
b1 B"
b1 4#
b1 <#
b1 A"
b1 Q"
bx .
bx >"
bx '#
bx /
bx S
bx p
bx ="
bx 0
bx <"
bx &#
bx 1
bx R
bx o
bx ;"
b11100 ;
b11100 N
b11100 5"
b11100 k
b11000 =
b11000 M
b11000 j
b11000 4"
b11000 k"
bx 4
bx Q
bx 9"
bx n
bx 7
bx I"
bx m"
bx n"
bx ##
bx C
bx L
bx g
bx 3"
bx i"
bx l"
bx 5
bx P
bx m
bx 8"
bx W"
bx 6
bx O
bx l
bx 7"
bx R"
bx J
bx K
bx e
bx 0"
bx ]"
xA
xh
xF
xf
bx (
bx T
bx ?"
bx r
x@
xi
xG
x,
xq
b100000 x"
b11100 w"
1"
#1050
0"
#1100
bx o"
bx {"
bx $#
b100100 <
b100100 [
b100100 q"
b100000 >
b100000 \
b100000 s"
bx 5#
bx =#
b101000 p"
b101000 !#
b101000 "#
b100100 r"
b100100 z"
b100100 |"
b100100 }"
b100100 x"
b100000 w"
b100000 ;
b100000 N
b100000 5"
b100000 k
b11100 =
b11100 M
b11100 j
b11100 4"
b11100 k"
bx 3
bx :"
bx O"
bx %#
bx /#
b11100 :
b11100 6"
b11100 -#
b11100 N"
bx '
bx @"
bx 2#
bx P"
x?
xM"
x8
x+
bx $
bx B"
bx 4#
bx <#
bx A"
bx Q"
bx I
bx 1"
bx 2"
bx L"
bx S"
bx X"
bx +#
bx ;#
b1010 2
b1010 Z
b1010 +"
b1010 (#
b1010 0#
b1010 8#
b1010 A#
b11000 9
b11000 .#
b11000 7#
b11000 @#
b11000 H#
1"
#1150
0"
#1200
bx !
bx )
bx %
bx W
bx ("
bx G"
bx V"
bx ["
bx D#
bx E#
bx J#
b101000 <
b101000 [
b101000 q"
b100100 >
b100100 \
b100100 s"
bx p"
bx !#
bx "#
bx r"
bx z"
bx |"
bx }"
bx 2
bx Z
bx +"
bx (#
bx 0#
bx 8#
bx A#
b11100 9
b11100 .#
b11100 7#
b11100 @#
b11100 H#
bx -
bx 1#
bx 9#
bx B#
bx G#
bx H
bx ,#
bx 6#
bx ?#
bx F#
bx &
bx 3#
bx :#
bx C#
bx I#
x*
b100000 :
b100000 6"
b100000 -#
b100000 N"
b100100 ;
b100100 N
b100100 5"
b100100 k
b100000 =
b100000 M
b100000 j
b100000 4"
b100000 k"
b101000 x"
b100100 w"
1"
