source/dump.vcd
$date
	Thu Jan 16 06:44:32 2025
$end
$version
	Icarus Verilog
$end
$timescale
	1s
$end
$scope module pipeline_top_tb $end
$var reg 1 ! clk $end
$var reg 1 " rst $end
$scope module dut $end
$var wire 32 # ALUResultM_E [31:0] $end
$var wire 5 $ RDW [4:0] $end
$var wire 1 ! clk $end
$var wire 1 " rst $end
$var wire 32 % WriteDataM [31:0] $end
$var wire 32 & ResultW [31:0] $end
$var wire 2 ' ResultSrcW [1:0] $end
$var wire 2 ( ResultSrcM [1:0] $end
$var wire 2 ) ResultSrcE [1:0] $end
$var wire 1 * RegWriteW_W $end
$var wire 1 + RegWriteW $end
$var wire 1 , RegWriteM $end
$var wire 1 - RegWriteE $end
$var wire 32 . ReadDataW [31:0] $end
$var wire 5 / RS2_E_H [4:0] $end
$var wire 5 0 RS2_E [4:0] $end
$var wire 5 1 RS1_E_H [4:0] $end
$var wire 5 2 RS1_E [4:0] $end
$var wire 5 3 RD_W_W [4:0] $end
$var wire 5 4 RD_W [4:0] $end
$var wire 5 5 RD_M [4:0] $end
$var wire 5 6 RD_E [4:0] $end
$var wire 32 7 RD2_E [31:0] $end
$var wire 32 8 RD1_E [31:0] $end
$var wire 32 9 PCTargetE [31:0] $end
$var wire 1 : PCSrcE $end
$var wire 32 ; PCPlus4W [31:0] $end
$var wire 32 < PCPlus4M [31:0] $end
$var wire 32 = PCPlus4E [31:0] $end
$var wire 32 > PCPlus4D [31:0] $end
$var wire 32 ? PCE [31:0] $end
$var wire 32 @ PCD [31:0] $end
$var wire 1 A MemWriteM $end
$var wire 1 B MemWriteE $end
$var wire 1 C JumpE $end
$var wire 32 D InstrD [31:0] $end
$var wire 32 E Imm_Ext_E [31:0] $end
$var wire 2 F ForwardBE [1:0] $end
$var wire 2 G ForwardAE [1:0] $end
$var wire 1 H BranchE $end
$var wire 1 I ALUSrcE $end
$var wire 32 J ALUResultW [31:0] $end
$var wire 32 K ALUResultM [31:0] $end
$var wire 3 L ALUControlE [2:0] $end
$scope module decode $end
$var wire 3 M ALUControlE [2:0] $end
$var wire 1 I ALUSrcE $end
$var wire 1 H BranchE $end
$var wire 32 N Imm_Ext_E [31:0] $end
$var wire 1 C JumpE $end
$var wire 1 B MemWriteE $end
$var wire 32 O PCE [31:0] $end
$var wire 32 P PCPlus4E [31:0] $end
$var wire 32 Q RD1_E [31:0] $end
$var wire 32 R RD2_E [31:0] $end
$var wire 5 S RDW [4:0] $end
$var wire 5 T RD_E [4:0] $end
$var wire 5 U RS1_E [4:0] $end
$var wire 5 V RS2_E [4:0] $end
$var wire 1 - RegWriteE $end
$var wire 2 W ResultSrcE [1:0] $end
$var wire 1 ! clk $end
$var wire 1 " rst $end
$var wire 32 X readData2_D [31:0] $end
$var wire 32 Y readData1_D [31:0] $end
$var wire 32 Z ResultW [31:0] $end
$var wire 2 [ ResultSrcD [1:0] $end
$var wire 1 + RegWriteW $end
$var wire 1 \ RegWriteD $end
$var wire 32 ] PCPlus4D [31:0] $end
$var wire 32 ^ PCD [31:0] $end
$var wire 1 _ MemWriteD $end
$var wire 1 ` JumpD $end
$var wire 32 a InstrD [31:0] $end
$var wire 32 b Imm_Ext_D [31:0] $end
$var wire 2 c ImmSrcD [1:0] $end
$var wire 1 d BranchD $end
$var wire 1 e ALUSrcD $end
$var wire 3 f ALUControlD [2:0] $end
$var reg 3 g ALUControlD_R [2:0] $end
$var reg 1 I ALUSrcD_R $end
$var reg 1 h BranchD_R $end
$var reg 32 i Imm_Ext_D_R [31:0] $end
$var reg 1 j JumpD_R $end
$var reg 1 k MemWriteD_R $end
$var reg 32 l PCD_R [31:0] $end
$var reg 32 m PCPlus4D_R [31:0] $end
$var reg 32 n RD1_D_R [31:0] $end
$var reg 32 o RD2_D_R [31:0] $end
$var reg 5 p RD_D_R [4:0] $end
$var reg 5 q RS1_D_R [4:0] $end
$var reg 5 r RS2_D_R [4:0] $end
$var reg 1 s RegWriteD_R $end
$var reg 2 t ResultSrcD_R [1:0] $end
$scope module control_unit $end
$var wire 3 u funct3 [2:0] $end
$var wire 7 v funct7 [6:0] $end
$var wire 7 w opcode [6:0] $end
$var wire 2 x ResultSrc [1:0] $end
$var wire 1 \ RegWrite $end
$var wire 1 _ MemWrite $end
$var wire 1 ` Jump $end
$var wire 2 y ImmSrc [1:0] $end
$var wire 1 d Branch $end
$var wire 1 e ALUSrc $end
$var wire 2 z ALUOp [1:0] $end
$var wire 3 { ALUControl [2:0] $end
$scope module alu_decoder $end
$var wire 3 | funct3 [2:0] $end
$var wire 7 } funct7 [6:0] $end
$var wire 7 ~ opcode [6:0] $end
$var wire 2 !" concatenation [1:0] $end
$var wire 2 "" ALUOp [1:0] $end
$var wire 3 #" ALUControl [2:0] $end
$upscope $end
$scope module main_decoder $end
$var wire 7 $" opcode [6:0] $end
$var wire 2 %" ResultSrc [1:0] $end
$var wire 1 \ RegWrite $end
$var wire 1 _ MemWrite $end
$var wire 1 ` Jump $end
$var wire 2 &" ImmSrc [1:0] $end
$var wire 1 d Branch $end
$var wire 1 e ALUSrc $end
$var wire 2 '" ALUOp [1:0] $end
$upscope $end
$upscope $end
$scope module registerFile $end
$var wire 1 ! clk $end
$var wire 5 (" rd [4:0] $end
$var wire 5 )" rs1 [4:0] $end
$var wire 5 *" rs2 [4:0] $end
$var wire 1 " rst $end
$var wire 1 + writeEnable $end
$var wire 32 +" writeData [31:0] $end
$var wire 32 ," readData2 [31:0] $end
$var wire 32 -" readData1 [31:0] $end
$upscope $end
$scope module sign_extend $end
$var wire 2 ." ImmSrc [1:0] $end
$var wire 32 /" In [31:0] $end
$var wire 32 0" Imm_Ext [31:0] $end
$upscope $end
$upscope $end
$scope module execute $end
$var wire 3 1" ALUControlE [2:0] $end
$var wire 32 2" ALUResultM [31:0] $end
$var wire 32 3" ALUResultM_E [31:0] $end
$var wire 1 I ALUSrcE $end
$var wire 1 H BranchE $end
$var wire 32 4" Imm_Ext_E [31:0] $end
$var wire 1 C JumpE $end
$var wire 1 B MemWriteE $end
$var wire 1 A MemWriteM $end
$var wire 32 5" PCE [31:0] $end
$var wire 32 6" PCPlus4E [31:0] $end
$var wire 32 7" PCPlus4M [31:0] $end
$var wire 32 8" RD1_E [31:0] $end
$var wire 32 9" RD2_E [31:0] $end
$var wire 5 :" RD_E [4:0] $end
$var wire 5 ;" RD_M [4:0] $end
$var wire 5 <" RS1_E [4:0] $end
$var wire 5 =" RS1_E_H [4:0] $end
$var wire 5 >" RS2_E [4:0] $end
$var wire 5 ?" RS2_E_H [4:0] $end
$var wire 1 - RegWriteE $end
$var wire 1 , RegWriteM $end
$var wire 2 @" ResultSrcE [1:0] $end
$var wire 2 A" ResultSrcM [1:0] $end
$var wire 32 B" WriteDataE [31:0] $end
$var wire 32 C" WriteDataM [31:0] $end
$var wire 1 ! clk $end
$var wire 1 " rst $end
$var wire 1 D" ZeroE $end
$var wire 32 E" SrcBE_M [31:0] $end
$var wire 32 F" SrcBE [31:0] $end
$var wire 32 G" SrcAE [31:0] $end
$var wire 32 H" ResultW [31:0] $end
$var wire 32 I" ResultE [31:0] $end
$var wire 32 J" PCTargetE [31:0] $end
$var wire 1 : PCSrcE $end
$var wire 2 K" ForwardBE [1:0] $end
$var wire 2 L" ForwardAE [1:0] $end
$var reg 32 M" ALUResultE_R [31:0] $end
$var reg 1 N" MemWriteE_R $end
$var reg 32 O" PCPlus4E_R [31:0] $end
$var reg 1 : PCSrcE_R $end
$var reg 5 P" RD_E_R [4:0] $end
$var reg 1 , RegWriteE_R $end
$var reg 2 Q" ResultSrcE_R [1:0] $end
$var reg 32 R" WriteDataE_R [31:0] $end
$scope module SrcAEMux $end
$var wire 32 S" a [31:0] $end
$var wire 32 T" c [31:0] $end
$var wire 2 U" s [1:0] $end
$var wire 32 V" d [31:0] $end
$var wire 32 W" b [31:0] $end
$upscope $end
$scope module SrcBEMux $end
$var wire 32 X" a [31:0] $end
$var wire 32 Y" c [31:0] $end
$var wire 2 Z" s [1:0] $end
$var wire 32 [" d [31:0] $end
$var wire 32 \" b [31:0] $end
$upscope $end
$scope module alu $end
$var wire 32 ]" A [31:0] $end
$var wire 3 ^" ALUControl [2:0] $end
$var wire 32 _" A_and_B [31:0] $end
$var wire 32 `" A_or_B [31:0] $end
$var wire 32 a" A_xor_B [31:0] $end
$var wire 1 b" carry $end
$var wire 32 c" not_B [31:0] $end
$var wire 1 d" overflow $end
$var wire 32 e" result [31:0] $end
$var wire 1 D" zero $end
$var wire 32 f" sum [31:0] $end
$var wire 32 g" slt [31:0] $end
$var wire 1 h" negative $end
$var wire 32 i" mux_2 [31:0] $end
$var wire 32 j" mux_1 [31:0] $end
$var wire 1 k" cout $end
$var wire 32 l" B [31:0] $end
$upscope $end
$scope module mux_1 $end
$var wire 32 m" a [31:0] $end
$var wire 32 n" b [31:0] $end
$var wire 1 I s $end
$var wire 32 o" c [31:0] $end
$upscope $end
$scope module pc_adder $end
$var wire 32 p" a [31:0] $end
$var wire 32 q" b [31:0] $end
$var wire 32 r" c [31:0] $end
$upscope $end
$upscope $end
$scope module fetch $end
$var wire 1 : PCSrcE $end
$var wire 32 s" PCTargetE [31:0] $end
$var wire 1 ! clk $end
$var wire 1 " rst $end
$var wire 32 t" PC_F [31:0] $end
$var wire 32 u" PCPlus4F [31:0] $end
$var wire 32 v" PCPlus4D [31:0] $end
$var wire 32 w" PCF [31:0] $end
$var wire 32 x" PCD [31:0] $end
$var wire 32 y" InstrF [31:0] $end
$var wire 32 z" InstrD [31:0] $end
$var reg 32 {" InstrF_reg [31:0] $end
$var reg 32 |" PCF_reg [31:0] $end
$var reg 32 }" PCPlus4F_reg [31:0] $end
$scope module Instruction_Memory $end
$var wire 1 " rst $end
$var wire 32 ~" RD [31:0] $end
$var wire 32 !# A [31:0] $end
$upscope $end
$scope module PC $end
$var wire 1 ! clk $end
$var wire 1 " rst $end
$var wire 32 "# PC_next [31:0] $end
$var reg 32 ## PC [31:0] $end
$upscope $end
$scope module PC_Adder $end
$var wire 32 $# a [31:0] $end
$var wire 32 %# b [31:0] $end
$var wire 32 &# c [31:0] $end
$upscope $end
$scope module PC_Mux $end
$var wire 32 '# a [31:0] $end
$var wire 32 (# b [31:0] $end
$var wire 1 : s $end
$var wire 32 )# c [31:0] $end
$upscope $end
$upscope $end
$scope module hazard $end
$var wire 5 *# RD_M [4:0] $end
$var wire 5 +# RS1_E [4:0] $end
$var wire 5 ,# RS2_E [4:0] $end
$var wire 1 , RegWriteM $end
$var wire 1 " rst $end
$var wire 1 * RegWriteW_W $end
$var wire 5 -# RD_W_W [4:0] $end
$var wire 2 .# ForwardBE [1:0] $end
$var wire 2 /# ForwardAE [1:0] $end
$upscope $end
$scope module memory $end
$var wire 32 0# ALUResultM [31:0] $end
$var wire 32 1# ALUResultW [31:0] $end
$var wire 1 A MemWriteM $end
$var wire 32 2# PCPlus4M [31:0] $end
$var wire 32 3# PCPlus4W [31:0] $end
$var wire 5 4# RD_M [4:0] $end
$var wire 5 5# RD_W [4:0] $end
$var wire 32 6# ReadDataW [31:0] $end
$var wire 1 , RegWriteM $end
$var wire 1 + RegWriteW $end
$var wire 2 7# ResultSrcM [1:0] $end
$var wire 2 8# ResultSrcW [1:0] $end
$var wire 32 9# WriteDataM [31:0] $end
$var wire 1 ! clk $end
$var wire 1 " rst $end
$var wire 32 :# ReadDataM_W [31:0] $end
$var reg 32 ;# ALUResultM_R [31:0] $end
$var reg 32 <# PCPlus4M_R [31:0] $end
$var reg 5 =# RD_M_R [4:0] $end
$var reg 32 ># ReadDataM_R [31:0] $end
$var reg 1 ?# RegWriteM_R $end
$var reg 2 @# ResultSrcM_R [1:0] $end
$scope module data_memory $end
$var wire 32 A# A [31:0] $end
$var wire 1 ! clk $end
$var wire 1 " rst $end
$var wire 32 B# writeData [31:0] $end
$var wire 1 A writeEnable $end
$var wire 32 C# RD [31:0] $end
$upscope $end
$upscope $end
$scope module writeback $end
$var wire 32 D# ALUResultW [31:0] $end
$var wire 32 E# PCPlus4W [31:0] $end
$var wire 5 F# RD_W [4:0] $end
$var wire 5 G# RD_W_W [4:0] $end
$var wire 32 H# ReadDataW [31:0] $end
$var wire 1 + RegWriteW $end
$var wire 1 * RegWriteW_W $end
$var wire 2 I# ResultSrcW [1:0] $end
$var wire 1 ! clk $end
$var wire 1 " rst $end
$var wire 32 J# ResultW_X [31:0] $end
$var wire 32 K# ResultW [31:0] $end
$var reg 5 L# RD_W_R [4:0] $end
$var reg 1 * RegWriteW_R $end
$var reg 32 M# ResultW_R [31:0] $end
$scope module mux_3_by_1 $end
$var wire 32 N# a [31:0] $end
$var wire 32 O# b [31:0] $end
$var wire 32 P# c [31:0] $end
$var wire 2 Q# s [1:0] $end
$var wire 32 R# d [31:0] $end
$upscope $end
$upscope $end
$upscope $end
$upscope $end
$enddefinitions $end
#0
$dumpvars
b0 R#
b0 Q#
b0 P#
b0 O#
b0 N#
b0 M#
b0 L#
b0 K#
b0 J#
b0 I#
b0 H#
b0 G#
b0 F#
b0 E#
b0 D#
b0 C#
b0 B#
b0 A#
b0 @#
0?#
b0 >#
b0 =#
b0 <#
b0 ;#
b0 :#
b0 9#
b0 8#
b0 7#
b0 6#
b0 5#
b0 4#
b0 3#
b0 2#
b0 1#
b0 0#
b0 /#
b0 .#
b0 -#
b0 ,#
b0 +#
b0 *#
b100 )#
b0 (#
b100 '#
b100 &#
b100 %#
b0 $#
b0 ##
b100 "#
b0 !#
b0 ~"
b0 }"
b0 |"
b0 {"
b0 z"
b0 y"
b0 x"
b0 w"
b0 v"
b100 u"
b100 t"
b0 s"
b0 r"
b0 q"
b0 p"
b0 o"
b0 n"
b0 m"
b0 l"
0k"
b0 j"
b0 i"
0h"
b0 g"
b0 f"
b0 e"
0d"
b11111111111111111111111111111111 c"
0b"
b0 a"
b0 `"
b0 _"
b0 ^"
b0 ]"
b0 \"
b0 ["
b0 Z"
bz Y"
b0 X"
b0 W"
b0 V"
b0 U"
bz T"
b0 S"
b0 R"
b0 Q"
b0 P"
b0 O"
0N"
b0 M"
b0 L"
b0 K"
b0 J"
b0 I"
b0 H"
b0 G"
b0 F"
b0 E"
1D"
b0 C"
b0 B"
b0 A"
b0 @"
b0 ?"
b0 >"
b0 ="
b0 <"
b0 ;"
b0 :"
b0 9"
b0 8"
b0 7"
b0 6"
b0 5"
b0 4"
bz 3"
b0 2"
b0 1"
b0 0"
b0 /"
b0 ."
b0 -"
b0 ,"
b0 +"
b0 *"
b0 )"
bz ("
b0 '"
b0 &"
b0 %"
b0 $"
b0 #"
b0 ""
b0 !"
b0 ~
b0 }
b0 |
b0 {
b0 z
b0 y
b0 x
b0 w
b0 v
b0 u
b0 t
0s
b0 r
b0 q
b0 p
b0 o
b0 n
b0 m
b0 l
0k
0j
b0 i
0h
b0 g
b0 f
0e
0d
b0 c
b0 b
b0 a
0`
0_
b0 ^
b0 ]
0\
b0 [
b0 Z
b0 Y
b0 X
b0 W
b0 V
b0 U
b0 T
bz S
b0 R
b0 Q
b0 P
b0 O
b0 N
b0 M
b0 L
b0 K
b0 J
0I
0H
b0 G
b0 F
b0 E
b0 D
0C
0B
0A
b0 @
b0 ?
b0 >
b0 =
b0 <
b0 ;
0:
b0 9
b0 8
b0 7
b0 6
b0 5
b0 4
b0 3
b0 2
b0 1
b0 0
b0 /
b0 .
0-
0,
0+
0*
b0 )
b0 (
b0 '
b0 &
b0 %
bz $
bz #
0"
1!
$end
#50
0!
#100
1!
#150
0!
#200
b10100000000001010010011 y"
b10100000000001010010011 ~"
bx :#
bx C#
1"
1!
#250
0!
#300
b101 b
b101 0"
b1100000000001100010011 y"
b1100000000001100010011 ~"
b101 *"
b10011 w
b10011 ~
b10011 $"
b1000 t"
b1000 "#
b1000 )#
b100 >
b100 ]
b100 v"
b10100000000001010010011 D
b10100000000001010010011 a
b10100000000001010010011 /"
b10100000000001010010011 z"
b1000 u"
b1000 &#
b1000 '#
b100 w"
b100 !#
b100 ##
b100 $#
b100 }"
b10100000000001010010011 {"
bx .
bx 6#
bx >#
bx H#
bx O#
1!
#350
0!
#400
b11 b
b11 0"
b11000101000001110110011 y"
b11000101000001110110011 ~"
b11 *"
b1100 t"
b1100 "#
b1100 )#
b1000 >
b1000 ]
b1000 v"
b100 @
b100 ^
b100 x"
b1100000000001100010011 D
b1100000000001100010011 a
b1100000000001100010011 /"
b1100000000001100010011 z"
b1100 u"
b1100 &#
b1100 '#
b1000 w"
b1000 !#
b1000 ##
b1000 $#
b101 /
b101 ?"
b101 0
b101 V
b101 r
b101 >"
b101 ,#
b100 =
b100 P
b100 6"
b100 m
b101 6
b101 T
b101 :"
b101 p
b101 9
b101 J"
b101 r"
b101 s"
b101 (#
b101 E
b101 N
b101 i
b101 4"
b101 n"
b101 q"
b1000 }"
b100 |"
b1100000000001100010011 {"
1!
#450
0!
#500
1\
b10 z
b10 ""
b10 '"
b110 b
b110 0"
b10 !"
b10010000000011 y"
b10010000000011 ~"
b110 *"
b101 )"
b110011 w
b110011 ~
b110011 $"
b10000 t"
b10000 "#
b10000 )#
b1100 >
b1100 ]
b1100 v"
b1000 @
b1000 ^
b1000 x"
b11000101000001110110011 D
b11000101000001110110011 a
b11000101000001110110011 /"
b11000101000001110110011 z"
b10000 u"
b10000 &#
b10000 '#
b1100 w"
b1100 !#
b1100 ##
b1100 $#
b1100 }"
b1000 |"
b11000101000001110110011 {"
b11 /
b11 ?"
b11 0
b11 V
b11 r
b11 >"
b11 ,#
b1000 =
b1000 P
b1000 6"
b1000 m
b100 ?
b100 O
b100 l
b100 5"
b100 p"
b110 6
b110 T
b110 :"
b110 p
b111 9
b111 J"
b111 r"
b111 s"
b111 (#
b11 E
b11 N
b11 i
b11 4"
b11 n"
b11 q"
b101 5
b101 ;"
b101 P"
b101 *#
b101 4#
b100 <
b100 7"
b100 2#
b100 O"
1!
#550
0!
#600
1e
b0 z
b0 ""
b0 '"
b0 b
b0 0"
b0 !"
b1 [
b1 x
b1 %"
b100000000010010010011 y"
b100000000010010010011 ~"
b0 *"
b0 )"
b10 u
b10 |
b11 w
b11 ~
b11 $"
b10100 t"
b10100 "#
b10100 )#
b10000 >
b10000 ]
b10000 v"
b1100 @
b1100 ^
b1100 x"
b10010000000011 D
b10010000000011 a
b10010000000011 /"
b10010000000011 z"
b10100 u"
b10100 &#
b10100 '#
b10000 w"
b10000 !#
b10000 ##
b10000 $#
b101 4
b101 5#
b101 F#
b101 =#
b100 ;
b100 3#
b100 <#
b100 E#
b100 P#
b110 5
b110 ;"
b110 P"
b110 *#
b110 4#
b1000 <
b1000 7"
b1000 2#
b1000 O"
b110 /
b110 ?"
b110 0
b110 V
b110 r
b110 >"
b110 ,#
b101 1
b101 ="
b101 2
b101 U
b101 q
b101 <"
b101 +#
b1100 =
b1100 P
b1100 6"
b1100 m
b1000 ?
b1000 O
b1000 l
b1000 5"
b1000 p"
b111 6
b111 T
b111 :"
b111 p
b1110 9
b1110 J"
b1110 r"
b1110 s"
b1110 (#
b110 E
b110 N
b110 i
b110 4"
b110 n"
b110 q"
1-
1s
b10000 }"
b1100 |"
b10010000000011 {"
1!
#650
0!
#700
0\
0e
b1 b
b1 0"
b0 [
b0 x
b0 %"
b100101000000010100110011 y"
b100101000000010100110011 ~"
b1 *"
b0 u
b0 |
b10011 w
b10011 ~
b10011 $"
b11000 t"
b11000 "#
b11000 )#
b10100 >
b10100 ]
b10100 v"
b10000 @
b10000 ^
b10000 x"
b100000000010010010011 D
b100000000010010010011 a
b100000000010010010011 /"
b100000000010010010011 z"
b11000 u"
b11000 &#
b11000 '#
b10100 w"
b10100 !#
b10100 ##
b10100 $#
b10100 }"
b10000 |"
b100000000010010010011 {"
b0 /
b0 ?"
b0 0
b0 V
b0 r
b0 >"
b0 ,#
b0 1
b0 ="
b0 2
b0 U
b0 q
b0 <"
b0 +#
b10000 =
b10000 P
b10000 6"
b10000 m
b1100 ?
b1100 O
b1100 l
b1100 5"
b1100 p"
b1000 6
b1000 T
b1000 :"
b1000 p
b1100 9
b1100 J"
b1100 r"
b1100 s"
b1100 (#
b0 E
b0 N
b0 i
b0 4"
b0 n"
b0 q"
b1 )
b1 W
b1 @"
b1 t
1I
b111 5
b111 ;"
b111 P"
b111 *#
b111 4#
b1100 <
b1100 7"
b1100 2#
b1100 O"
1,
b110 4
b110 5#
b110 F#
b110 =#
b1000 ;
b1000 3#
b1000 <#
b1000 E#
b1000 P#
b101 3
b101 -#
b101 G#
b101 L#
1!
#750
0!
#800
1\
b10 z
b10 ""
b10 '"
b1001 b
b1001 0"
b10 !"
bx y"
bx ~"
b1001 *"
b1000 )"
b110011 w
b110011 ~
b110011 $"
b11100 t"
b11100 "#
b11100 )#
b11000 >
b11000 ]
b11000 v"
b10100 @
b10100 ^
b10100 x"
b100101000000010100110011 D
b100101000000010100110011 a
b100101000000010100110011 /"
b100101000000010100110011 z"
b11100 u"
b11100 &#
b11100 '#
b11000 w"
b11000 !#
b11000 ##
b11000 $#
b110 3
b110 -#
b110 G#
b110 L#
b111 4
b111 5#
b111 F#
b111 =#
b1100 ;
b1100 3#
b1100 <#
b1100 E#
b1100 P#
1+
1?#
b1000 5
b1000 ;"
b1000 P"
b1000 *#
b1000 4#
b10000 <
b10000 7"
b10000 2#
b10000 O"
b1 (
b1 A"
b1 7#
b1 Q"
b1 /
b1 ?"
b1 0
b1 V
b1 r
b1 >"
b1 ,#
b10100 =
b10100 P
b10100 6"
b10100 m
b10000 ?
b10000 O
b10000 l
b10000 5"
b10000 p"
b1001 6
b1001 T
b1001 :"
b1001 p
b10001 9
b10001 J"
b10001 r"
b10001 s"
b10001 (#
b1 E
b1 N
b1 i
b1 4"
b1 n"
b1 q"
b0 )
b0 W
b0 @"
b0 t
0I
0-
0s
b11000 }"
b10100 |"
b100101000000010100110011 {"
1!
#850
0!
#900
x\
bx f
bx {
bx #"
xe
x`
bx z
bx ""
bx '"
bx b
bx 0"
bx !"
x_
xd
bx c
bx y
bx &"
bx ."
bx [
bx x
bx %"
b0 F
b0 K"
b0 Z"
b0 .#
bx *"
bx )"
bx u
bx |
bx v
bx }
bx w
bx ~
bx $"
b100000 t"
b100000 "#
b100000 )#
b11100 >
b11100 ]
b11100 v"
b11000 @
b11000 ^
b11000 x"
bx D
bx a
bx /"
bx z"
bx J#
bx R#
b100000 u"
b100000 &#
b100000 '#
b11100 w"
b11100 !#
b11100 ##
b11100 $#
b11100 }"
b11000 |"
bx {"
b1001 /
b1001 ?"
b1001 0
b1001 V
b1001 r
b1001 >"
b1001 ,#
b1000 1
b1000 ="
b1000 2
b1000 U
b1000 q
b1000 <"
b1000 +#
b11000 =
b11000 P
b11000 6"
b11000 m
b10100 ?
b10100 O
b10100 l
b10100 5"
b10100 p"
b1010 6
b1010 T
b1010 :"
b1010 p
b11101 9
b11101 J"
b11101 r"
b11101 s"
b11101 (#
b1001 E
b1001 N
b1001 i
b1001 4"
b1001 n"
b1001 q"
1-
1s
b1001 5
b1001 ;"
b1001 P"
b1001 *#
b1001 4#
b10100 <
b10100 7"
b10100 2#
b10100 O"
b0 (
b0 A"
b0 7#
b0 Q"
0,
b1000 4
b1000 5#
b1000 F#
b1000 =#
b10000 ;
b10000 3#
b10000 <#
b10000 E#
b10000 P#
b1 '
b1 8#
b1 @#
b1 I#
b1 Q#
1*
b111 3
b111 -#
b111 G#
b111 L#
1!
#950
0!
#1000
bx _"
bx E"
bx ["
bx m"
bx G"
bx V"
bx ]"
xd"
bx F
bx K"
bx Z"
bx .#
bx G
bx L"
bx U"
bx /#
xD"
xh"
b0x g"
bx I"
bx e"
bx i"
xb"
bx j"
bx c"
bx a"
bx `"
bx f"
xk"
bx F"
bx l"
bx o"
b100100 t"
b100100 "#
b100100 )#
b0 J#
b0 R#
b100000 >
b100000 ]
b100000 v"
b11100 @
b11100 ^
b11100 x"
b100100 u"
b100100 &#
b100100 '#
b100000 w"
b100000 !#
b100000 ##
b100000 $#
b1000 3
b1000 -#
b1000 G#
b1000 L#
bx &
bx Z
bx +"
bx H"
bx W"
bx \"
bx K#
bx M#
b1001 4
b1001 5#
b1001 F#
b1001 =#
b10100 ;
b10100 3#
b10100 <#
b10100 E#
b10100 P#
b0 '
b0 8#
b0 @#
b0 I#
b0 Q#
0+
0?#
b1010 5
b1010 ;"
b1010 P"
b1010 *#
b1010 4#
b11000 <
b11000 7"
b11000 2#
b11000 O"
1,
bx /
bx ?"
bx 0
bx V
bx r
bx >"
bx ,#
bx 1
bx ="
bx 2
bx U
bx q
bx <"
bx +#
b11100 =
b11100 P
b11100 6"
b11100 m
b11000 ?
b11000 O
b11000 l
b11000 5"
b11000 p"
bx 6
bx T
bx :"
bx p
bx 9
bx J"
bx r"
bx s"
bx (#
bx E
bx N
bx i
bx 4"
bx n"
bx q"
bx L
bx M
bx g
bx 1"
bx ^"
xC
xj
xH
xh
bx )
bx W
bx @"
bx t
xB
xk
xI
x-
xs
b100000 }"
b11100 |"
1!
#1050
0!
#1100
bx0 F
bx0 K"
bx0 Z"
bx0 .#
bx0 G
bx0 L"
bx0 U"
bx0 /#
bx t"
bx "#
bx )#
b100100 >
b100100 ]
b100100 v"
b100000 @
b100000 ^
b100000 x"
b101000 u"
b101000 &#
b101000 '#
b100100 w"
b100100 !#
b100100 ##
b100100 $#
b100100 }"
b100000 |"
b100000 =
b100000 P
b100000 6"
b100000 m
b11100 ?
b11100 O
b11100 l
b11100 5"
b11100 p"
bx 5
bx ;"
bx P"
bx *#
bx 4#
b11100 <
b11100 7"
b11100 2#
b11100 O"
bx (
bx A"
bx 7#
bx Q"
xA
xN"
x:
x,
bx %
bx C"
bx 9#
bx B#
bx B"
bx R"
bx K
bx 2"
bx M"
bx 0#
bx A#
b1010 4
b1010 5#
b1010 F#
b1010 =#
b11000 ;
b11000 3#
b11000 <#
b11000 E#
b11000 P#
1+
1?#
0*
b1001 3
b1001 -#
b1001 G#
b1001 L#
b0 &
b0 Z
b0 +"
b0 H"
b0 W"
b0 \"
b0 K#
b0 M#
1!
#1150
0!
#1200
bx F
bx K"
bx Z"
bx .#
bx G
bx L"
bx U"
bx /#
bx J#
bx R#
b101000 >
b101000 ]
b101000 v"
b100100 @
b100100 ^
b100100 x"
bx u"
bx &#
bx '#
bx w"
bx !#
bx ##
bx $#
1*
b1010 3
b1010 -#
b1010 G#
b1010 L#
bx 4
bx 5#
bx F#
bx =#
b11100 ;
b11100 3#
b11100 <#
b11100 E#
b11100 P#
bx J
bx 1#
bx ;#
bx D#
bx N#
bx '
bx 8#
bx @#
bx I#
bx Q#
x+
x?#
b100000 <
b100000 7"
b100000 2#
b100000 O"
b100100 =
b100100 P
b100100 6"
b100100 m
b100000 ?
b100000 O
b100000 l
b100000 5"
b100000 p"
b101000 }"
b100100 |"
1!
